src/simulation/qsim/consequence.msim.vcd
$comment
	File created using the following command:
		vcd file consequence.msim.vcd -direction
$end
$date
	Fri Oct 19 15:58:10 2018
$end
$version
	ModelSim Version 10.5b
$end
$timescale
	1ps
$end

$scope module nec_ir_controller_test_vhd_vec_tst $end
$var wire 1 ! CLOCK_50 $end
$var wire 1 " IRDA_RXD $end
$var wire 1 # LEDR [2] $end
$var wire 1 $ LEDR [1] $end
$var wire 1 % LEDR [0] $end

$scope module i1 $end
$var wire 1 & gnd $end
$var wire 1 ' vcc $end
$var wire 1 ( unknown $end
$var wire 1 ) devoe $end
$var wire 1 * devclrn $end
$var wire 1 + devpor $end
$var wire 1 , ww_devoe $end
$var wire 1 - ww_devclrn $end
$var wire 1 . ww_devpor $end
$var wire 1 / ww_LEDR [2] $end
$var wire 1 0 ww_LEDR [1] $end
$var wire 1 1 ww_LEDR [0] $end
$var wire 1 2 ww_IRDA_RXD $end
$var wire 1 3 ww_CLOCK_50 $end
$var wire 1 4 \IRDA_RXD~input_o\ $end
$var wire 1 5 \CLOCK_50~input_o\ $end
$var wire 1 6 \LEDR[2]~output_o\ $end
$var wire 1 7 \LEDR[1]~output_o\ $end
$var wire 1 8 \LEDR[0]~output_o\ $end
$upscope $end
$upscope $end
$enddefinitions $end
#0
$dumpvars
0!
0"
0&
1'
x(
1)
1*
1+
1,
1-
1.
02
03
04
05
06
07
18
0/
00
11
0#
0$
1%
$end
#10000
1!
13
15
#20000
0!
03
05
#30000
1!
13
15
#40000
0!
03
05
#50000
1!
13
15
#60000
0!
03
05
#70000
1!
13
15
#80000
0!
03
05
#90000
1!
13
15
#100000
0!
03
05
#110000
1!
13
15
#120000
0!
1"
03
12
14
05
#130000
1!
13
15
#140000
0!
03
05
#150000
1!
13
15
#160000
0!
03
05
#170000
1!
13
15
#180000
0!
03
05
#190000
1!
13
15
#200000
0!
03
05
#210000
1!
13
15
#220000
0!
03
05
#230000
1!
13
15
#240000
0!
03
05
#250000
1!
13
15
#260000
0!
03
05
#270000
1!
13
15
#280000
0!
03
05
#290000
1!
13
15
#300000
0!
03
05
#310000
1!
13
15
#320000
0!
03
05
#330000
1!
13
15
#340000
0!
03
05
#350000
1!
13
15
#360000
0!
03
05
#370000
1!
13
15
#380000
0!
03
05
#390000
1!
13
15
#400000
0!
03
05
#410000
1!
13
15
#420000
0!
03
05
#430000
1!
13
15
#440000
0!
03
05
#450000
1!
13
15
#460000
0!
03
05
#470000
1!
13
15
#480000
0!
03
05
#490000
1!
13
15
#500000
0!
03
05
#510000
1!
13
15
#520000
0!
03
05
#530000
1!
13
15
#540000
0!
03
05
#550000
1!
13
15
#560000
0!
03
05
#570000
1!
13
15
#580000
0!
03
05
#590000
1!
13
15
#600000
0!
03
05
#610000
1!
13
15
#620000
0!
03
05
#630000
1!
13
15
#640000
0!
03
05
#650000
1!
0"
13
02
04
15
#660000
0!
03
05
#670000
1!
13
15
#680000
0!
03
05
#690000
1!
13
15
#700000
0!
03
05
#710000
1!
13
15
#720000
0!
03
05
#730000
1!
13
15
#740000
0!
03
05
#750000
1!
13
15
#760000
0!
03
05
#770000
1!
13
15
#780000
0!
03
05
#790000
1!
13
15
#800000
0!
03
05
#810000
1!
13
15
#820000
0!
03
05
#830000
1!
13
15
#840000
0!
03
05
#850000
1!
13
15
#860000
0!
03
05
#870000
1!
13
15
#880000
0!
03
05
#890000
1!
13
15
#900000
0!
03
05
#910000
1!
13
15
#920000
0!
03
05
#930000
1!
13
15
#940000
0!
03
05
#950000
1!
13
15
#960000
0!
03
05
#970000
1!
13
15
#980000
0!
03
05
#990000
1!
13
15
