src/simulation/qsim/consequence.msim.vcd
$comment
	File created using the following command:
		vcd file consequence.msim.vcd -direction
$end
$date
	Fri Oct 19 14:24:09 2018
$end
$version
	ModelSim Version 10.5b
$end
$timescale
	1ps
$end

$scope module xorshift_test_vhd_vec_tst $end
$var wire 1 ! clock $end
$var wire 1 " random_number [3] $end
$var wire 1 # random_number [2] $end
$var wire 1 $ random_number [1] $end
$var wire 1 % random_number [0] $end

$scope module i1 $end
$var wire 1 & gnd $end
$var wire 1 ' vcc $end
$var wire 1 ( unknown $end
$var wire 1 ) devoe $end
$var wire 1 * devclrn $end
$var wire 1 + devpor $end
$var wire 1 , ww_devoe $end
$var wire 1 - ww_devclrn $end
$var wire 1 . ww_devpor $end
$var wire 1 / ww_random_number [3] $end
$var wire 1 0 ww_random_number [2] $end
$var wire 1 1 ww_random_number [1] $end
$var wire 1 2 ww_random_number [0] $end
$var wire 1 3 ww_clock $end
$var wire 1 4 \random_number[3]~output_o\ $end
$var wire 1 5 \random_number[2]~output_o\ $end
$var wire 1 6 \random_number[1]~output_o\ $end
$var wire 1 7 \random_number[0]~output_o\ $end
$var wire 1 8 \clock~input_o\ $end
$var wire 1 9 \inst|SEED[0]~0_combout\ $end
$var wire 1 : \inst|SEED[1]~24_combout\ $end
$var wire 1 ; \inst|SEED[3]~23_combout\ $end
$var wire 1 < \inst|SEED[4]~22_combout\ $end
$var wire 1 = \inst|SEED[5]~21_combout\ $end
$var wire 1 > \inst|SEED[6]~20_combout\ $end
$var wire 1 ? \inst|SEED[7]~19_combout\ $end
$var wire 1 @ \inst|SEED[8]~18_combout\ $end
$var wire 1 A \inst|SEED[9]~17_combout\ $end
$var wire 1 B \inst|SEED[12]~16_combout\ $end
$var wire 1 C \inst|SEED[13]~15_combout\ $end
$var wire 1 D \inst|SEED[14]~14_combout\ $end
$var wire 1 E \inst|SEED[15]~13_combout\ $end
$var wire 1 F \inst|SEED[16]~12_combout\ $end
$var wire 1 G \inst|SEED[17]~11_combout\ $end
$var wire 1 H \inst|SEED[19]~10_combout\ $end
$var wire 1 I \inst|SEED[20]~9_combout\ $end
$var wire 1 J \inst|SEED[21]~8_combout\ $end
$var wire 1 K \inst|SEED[22]~7_combout\ $end
$var wire 1 L \inst|SEED[24]~6_combout\ $end
$var wire 1 M \inst|SEED[26]~5_combout\ $end
$var wire 1 N \inst|SEED[27]~4_combout\ $end
$var wire 1 O \inst|SEED[28]~3_combout\ $end
$var wire 1 P \inst|SEED[29]~2_combout\ $end
$var wire 1 Q \inst|SEED[31]~1_combout\ $end
$var wire 1 R \inst|SEED\ [31] $end
$var wire 1 S \inst|SEED\ [30] $end
$var wire 1 T \inst|SEED\ [29] $end
$var wire 1 U \inst|SEED\ [28] $end
$var wire 1 V \inst|SEED\ [27] $end
$var wire 1 W \inst|SEED\ [26] $end
$var wire 1 X \inst|SEED\ [25] $end
$var wire 1 Y \inst|SEED\ [24] $end
$var wire 1 Z \inst|SEED\ [23] $end
$var wire 1 [ \inst|SEED\ [22] $end
$var wire 1 \ \inst|SEED\ [21] $end
$var wire 1 ] \inst|SEED\ [20] $end
$var wire 1 ^ \inst|SEED\ [19] $end
$var wire 1 _ \inst|SEED\ [18] $end
$var wire 1 ` \inst|SEED\ [17] $end
$var wire 1 a \inst|SEED\ [16] $end
$var wire 1 b \inst|SEED\ [15] $end
$var wire 1 c \inst|SEED\ [14] $end
$var wire 1 d \inst|SEED\ [13] $end
$var wire 1 e \inst|SEED\ [12] $end
$var wire 1 f \inst|SEED\ [11] $end
$var wire 1 g \inst|SEED\ [10] $end
$var wire 1 h \inst|SEED\ [9] $end
$var wire 1 i \inst|SEED\ [8] $end
$var wire 1 j \inst|SEED\ [7] $end
$var wire 1 k \inst|SEED\ [6] $end
$var wire 1 l \inst|SEED\ [5] $end
$var wire 1 m \inst|SEED\ [4] $end
$var wire 1 n \inst|SEED\ [3] $end
$var wire 1 o \inst|SEED\ [2] $end
$var wire 1 p \inst|SEED\ [1] $end
$var wire 1 q \inst|SEED\ [0] $end
$var wire 1 r \inst|ALT_INV_SEED\ [31] $end
$var wire 1 s \inst|ALT_INV_SEED\ [30] $end
$var wire 1 t \inst|ALT_INV_SEED\ [29] $end
$var wire 1 u \inst|ALT_INV_SEED\ [28] $end
$upscope $end
$upscope $end
$enddefinitions $end
#0
$dumpvars
0!
0&
1'
x(
1)
1*
1+
1,
1-
1.
03
14
05
06
17
08
19
1:
1;
1<
1=
1>
1?
1@
1A
1B
1C
1D
1E
1F
1G
1H
1I
1J
1K
1L
1M
1N
1O
1P
1Q
1/
00
01
12
0R
0S
0T
0U
0V
0W
0X
0Y
0Z
0[
0\
0]
0^
0_
0`
0a
0b
0c
0d
0e
0f
0g
0h
0i
0j
0k
0l
0m
0n
0o
0p
0q
1r
xs
xt
1u
1"
0#
0$
1%
$end
#25000
1!
13
18
1q
1p
1n
1m
1l
1k
1j
1i
1h
1e
1d
1c
1b
1a
1`
1^
1]
1\
1[
1Y
1W
1V
1U
1T
1R
0r
0u
0P
0O
0N
0K
0J
0I
0G
0F
0E
0D
0C
0A
0@
0?
0>
0=
0<
0:
16
07
04
11
02
0/
1$
0%
0"
#50000
0!
03
08
#75000
1!
13
18
0p
1o
0m
0l
0k
0j
0i
0h
1g
0d
0c
0b
0a
0`
1_
0]
0\
0[
1Z
1X
0V
0U
0T
1S
1u
0Q
1P
1O
0M
0L
1K
1J
0H
1G
1F
1E
1D
1A
1@
1?
1>
1=
0;
15
06
17
10
01
12
0$
1#
1%
#100000
0!
03
08
#125000
1!
13
18
0o
0n
1l
1k
1j
1i
1h
0g
1f
1c
1b
1a
1`
0_
0^
1\
1[
0Z
0Y
0W
1U
1T
0S
0R
1r
0u
09
1Q
0P
1N
1L
0K
1I
1H
0G
0F
0E
0B
0A
0@
0?
0>
1<
1;
05
16
07
14
00
11
02
1/
1$
0#
0%
1"
#150000
0!
03
08
#175000
1!
13
18
0q
1n
1m
0k
0j
0i
0h
1g
0f
0e
0b
0a
0`
1_
1^
1]
0[
1Z
1Y
0X
1V
0T
1S
1R
0r
0Q
0O
1M
0L
0J
0I
0H
1G
1F
1C
1B
1A
1@
1?
0=
0<
1:
15
06
04
10
01
0/
0$
1#
0"
#200000
0!
03
08
#225000
1!
13
18
1p
0m
0l
1j
1i
1h
0g
1f
1e
1d
1a
1`
0_
0^
0]
0\
0Z
0Y
1X
1W
0U
0S
0R
1r
1u
19
1Q
1P
0N
0M
1L
1K
1J
1I
1H
0G
0D
0C
0B
0A
0@
1>
1=
05
17
14
00
12
1/
0#
1%
1"
#250000
0!
03
08
#275000
1!
13
18
1q
1o
1l
1k
0i
0h
1g
0f
0e
0d
0c
0`
1_
1^
1]
1\
1[
1Y
0X
0W
0V
1T
1R
0r
1O
1N
1M
0K
0J
0I
0H
1E
1D
1C
1B
1A
0?
0>
0;
0:
16
04
11
0/
1$
0"
#300000
0!
03
08
#325000
1!
13
18
0p
0n
0k
0j
1h
0g
1f
1e
1d
1c
1b
0_
0^
0]
0\
0[
1Z
1X
1W
1V
1U
1S
0u
0Q
0P
0O
0N
0M
0L
1K
1J
1I
1H
0F
0E
0D
0C
0B
1@
1?
1<
15
07
10
02
1#
0%
#350000
0!
03
08
#375000
1!
13
18
0o
1m
1j
1i
1g
0f
0e
0d
0c
0b
0a
1^
1]
1\
1[
0Z
0Y
0W
0V
0U
0T
0R
1r
1u
09
1P
1O
1N
1L
0K
0J
0I
1G
1F
1E
1D
1C
1B
0A
0@
0=
1;
06
17
14
01
12
1/
0$
1%
1"
#400000
0!
03
08
#425000
1!
13
18
0q
1n
0l
0i
0h
1f
1e
1d
1c
1b
1a
1`
0]
0\
0[
1Z
1Y
0X
1V
1U
1T
0S
0u
1Q
0P
0O
1M
0L
1K
1J
0G
0F
0E
0D
0C
0B
1A
1>
0<
19
1:
05
16
07
00
11
02
1$
0#
0%
#450000
0!
03
08
#475000
1!
13
18
1q
1p
0m
1k
1h
0g
0e
0d
0c
0b
0a
0`
1_
1\
1[
0Z
0Y
1X
1W
0U
0T
1S
1R
0r
1u
0Q
1P
0N
0M
1L
0K
0H
1G
1F
1E
1D
1C
0?
1=
0:
15
06
17
04
10
01
12
0/
0$
1#
1%
0"
#500000
0!
03
08
#525000
1!
13
18
0p
1o
1l
0j
1g
0f
1d
1c
1b
1a
1`
0_
0^
0[
1Z
1Y
0X
0W
0V
1T
0S
0R
1r
09
1Q
1O
1N
1M
0L
1I
1H
0G
0F
0E
0D
1B
1@
0>
0;
05
16
14
00
11
1/
1$
0#
1"
#550000
0!
03
08
#575000
1!
13
18
0q
0o
0n
0k
1i
1f
1e
0c
0b
0a
0`
1_
1^
1]
0Z
0Y
1X
1W
1V
1U
1S
1R
0r
0u
0Q
0P
0O
0N
0M
1L
0J
0I
0H
1G
1F
1E
0C
0B
0A
1?
1<
1;
1:
15
07
04
10
02
0/
1#
0%
0"
#600000
0!
03
08
#625000
1!
13
18
1p
1n
1m
1j
0h
0e
0d
1b
1a
1`
0_
0^
0]
0\
1Y
0X
0W
0V
0U
0T
0R
1r
1u
19
1P
1O
1N
1M
1K
1J
1I
1H
0G
0F
1D
1C
0@
0=
0<
06
17
14
01
12
1/
0$
1%
1"
#650000
0!
03
08
#675000
1!
13
18
1q
1o
0m
0l
0i
0g
1d
1c
0a
0`
1_
1^
1]
1\
1[
1X
1W
1V
1U
1T
0S
0u
1Q
0P
0O
0N
0M
0K
0J
0I
0H
1G
0E
0D
1A
1>
1=
0;
09
0:
05
16
07
00
11
02
1$
0#
0%
#700000
0!
03
08
#725000
1!
13
18
0q
0p
0n
1l
1k
1h
0f
0c
0b
1`
0_
0^
0]
0\
0[
1Z
0W
0V
0U
0T
1S
1R
0r
1u
0Q
1P
1O
1N
0L
1K
1J
1I
1H
1F
1E
1B
0?
0>
1<
1:
15
06
17
04
10
01
12
0/
0$
1#
1%
0"
#750000
0!
03
08
#775000
1!
13
18
1p
0o
1m
0k
0j
1g
1e
1b
1a
1_
1^
1]
1\
1[
0Z
0Y
1V
1U
1T
0S
0R
1r
0u
19
1Q
0P
0O
1L
0K
0J
0I
0H
0G
0F
0C
1@
1?
0=
1;
05
16
07
14
00
11
02
1/
1$
0#
0%
1"
#800000
0!
03
08
#825000
1!
13
18
1q
1o
1n
0l
1j
1i
1f
0d
0a
0`
0^
0]
0\
0[
1Z
1Y
0X
0U
0T
1S
1R
0r
1u
0Q
1P
1M
0L
1K
1J
1I
1G
1D
0B
0A
0@
1>
0<
0;
0:
15
06
17
04
10
01
12
0/
0$
1#
1%
0"
#850000
0!
03
08
#875000
1!
13
18
0p
0n
0m
1k
0i
0h
0e
1c
1`
0_
1]
1\
1[
0Z
0Y
1X
1W
1T
0S
0R
1r
09
1Q
0N
0M
1L
0K
0J
1H
0E
1C
1A
0?
1=
1<
05
16
14
00
11
1/
1$
0#
1"
#900000
0!
03
08
#925000
1!
13
18
0q
0o
1m
1l
0j
1h
0g
1d
0b
1_
1^
0\
0[
1Z
1Y
0X
0W
0V
1S
1R
0r
0Q
1O
1N
1M
0L
1K
0I
0H
1F
0D
1@
0>
0=
1;
1:
15
04
10
0/
1#
0"
#950000
0!
03
08
#975000
1!
13
18
1p
1n
0l
0k
1i
1g
0f
0c
1a
0^
0]
1[
0Z
0Y
1X
1W
1V
1U
0R
1r
0u
19
0P
0O
0N
0M
1L
1J
1I
0G
1E
1B
0A
1?
1>
0<
07
14
02
1/
0%
1"
